Cadastro Nacional de Condenações Cíveis por Ato de Improbidade Administrativa e Inelegibilidade
…
2017-01-16

Chapter 1 Preâmbulo

Este é um relatório escrito em Markdown descrevendo um estudo realizado pela Associação Brasileira de Jurimetria (ABJ) para o Instituto Não Aceito Corrupção. O estudo em questão teve a finalidade de compreender o crime de improbidade admnistrativa analisando os admnistradores públicos que constam no Cadastro Nacional de Condenações Cíveis por Ato de Improbidade Administrativa e Inelegibilidade (CNC) do Conselho Nacional de Justiça (CNJ).

Para compilar este relatório, você precisará da versão de desenvolvimento do pacote bookdown disponível no Github do rstudio:

devtools::install_github("rstudio/bookdown")

Cada arquivo Rmd contém um e apenas um capítulo, e cada capítulo é definido pelo primeiro nível de cabeçalho #.

Para compilar este documento em PDF, você precisará utilizar XeLaTeX.

## # A tibble: 35,977 × 57
##                         arq_pag id_pag                             arq
##                           <chr>  <int>                           <chr>
## 1  data-raw/pags/pag_00609.html      3 data-raw/pessoas_pjs/10000.html
## 2  data-raw/pags/pag_00107.html     12 data-raw/pessoas_pjs/10001.html
## 3  data-raw/pags/pag_00056.html     15 data-raw/pessoas_pjs/10002.html
## 4  data-raw/pags/pag_00057.html      1 data-raw/pessoas_pjs/10003.html
## 5  data-raw/pags/pag_02314.html     15 data-raw/pessoas_pjs/10004.html
## 6  data-raw/pags/pag_00057.html      2 data-raw/pessoas_pjs/10005.html
## 7  data-raw/pags/pag_00280.html     13 data-raw/pessoas_pjs/10006.html
## 8  data-raw/pags/pag_00057.html      3 data-raw/pessoas_pjs/10007.html
## 9  data-raw/pags/pag_02307.html     10 data-raw/pessoas_pjs/10008.html
## 10 data-raw/pags/pag_01290.html      9 data-raw/pessoas_pjs/10009.html
## # ... with 35,967 more rows, and 54 more variables: id_condenacao <int>,
## #   id_processo <int>, id_pessoa <int>, tipo_pena <chr>, dt_pena <date>,
## #   assunto_cod_1 <int>, assunto_cod_2 <int>, assunto_cod_3 <int>,
## #   assunto_cod_4 <int>, assunto_cod_5 <int>, assunto_nm_1 <chr>,
## #   assunto_nm_2 <chr>, assunto_nm_3 <chr>, assunto_nm_4 <chr>,
## #   assunto_nm_5 <chr>, teve_inelegivel <chr>, teve_multa <chr>,
## #   teve_pena <chr>, teve_perda_bens <chr>, teve_perda_cargo <chr>,
## #   teve_proibicao <chr>, teve_ressarcimento <chr>, teve_suspensao <chr>,
## #   vl_multa <dbl>, vl_perda_bens <dbl>, vl_ressarcimento <dbl>,
…
